<?xml version="1.0" encoding="iso-8859-1"?>
<!-- Generator: Adobe Illustrator 18.1.1, SVG Export Plug-In . SVG Version: 6.00 Build 0)  -->
<svg version="1.1" id="Capa_1" xmlns="http://www.w3.org/2000/svg" xmlns:xlink="http://www.w3.org/1999/xlink" x="0px" y="0px"
	 viewBox="0 0 63.267 63.267" style="enable-background:new 0 0 63.267 63.267;" xml:space="preserve">
<g>
	<g>
		<path style="fill:#010002;" d="M6.348,32.764c4.241,0,4.278-6.568,0.047-6.568C2.155,26.196,2.117,32.764,6.348,32.764z"/>
		<path style="fill:#010002;" d="M26.827,47.48c-1.201,0-2.158,1.286-2.279,2.989l-0.427,4.642c-0.018,0.196,0.047,0.391,0.18,0.535
			c0.132,0.146,0.32,0.229,0.517,0.229h4.018c0.197,0,0.384-0.083,0.517-0.228c0.133-0.146,0.198-0.34,0.18-0.536l-0.425-4.642
			C28.986,48.766,28.027,47.48,26.827,47.48z M25.135,50.469c0.115-1.337,0.842-2.405,1.691-2.405c0.85,0,1.577,1.068,1.691,2.405
			H25.135z"/>
		<path style="fill:#010002;" d="M48.598,13.905c4.158-0.777,2.914-7.227-1.254-6.447C43.187,8.235,44.429,14.683,48.598,13.905z"/>
		<path style="fill:#010002;" d="M52.296,31.215c0.506-1.333,1.565-4.149,1.672-5.333c0.122-1.359-0.098-4.145-0.098-4.145
			c1.271,0.885,2.63,1.642,4.109,2.201c2.274,0.858,3.784-2.6,1.509-3.46c-2.729-1.03-5.036-2.783-7.028-4.897
			c-0.396-0.419-1.583-1.152-3.229-0.831c-1.431,0.277-2.826,1.674-2.688,3.157c0.094,0.991,0.571,2.931,0.741,3.911
			c0.189,1.092,0.303,3.716,0.219,4.061c-1.453,0.358-2.906,0.73-4.324,1.204c-1.166,0.39-1.5,1.686-1.571,2.019
			c-0.438,2.028-0.649,4.082-0.85,6.144c-0.217,2.236,3.249,2.519,3.464,0.293c0.175-1.801,0.369-3.592,0.706-5.369
			c1.367-0.406,2.757-0.765,4.146-1.092c-0.196,0.548-0.406,1.092-0.628,1.629c-0.177,0.427-0.371,1.14,0.233,1.97
			c1.35,1.851,2.843,3.557,4.476,5.161c0.734,0.722,2.065,0.428,2.649-0.316c0.688-0.874,0.417-1.929-0.317-2.651
			C54.329,33.734,53.272,32.506,52.296,31.215z"/>
		<path style="fill:#010002;" d="M56.529,26.136c-0.226-0.171-0.549-0.13-0.721,0.095c-0.172,0.226-0.13,0.548,0.096,0.721
			c0.1,0.075,9.809,7.718,5.001,21.504c-0.094,0.268,0.048,0.561,0.314,0.653c0.057,0.021,0.113,0.029,0.17,0.029
			c0.213,0,0.412-0.133,0.484-0.345C66.924,34.313,56.634,26.216,56.529,26.136z"/>
		<path style="fill:#010002;" d="M5.337,24.923c0.021,0,0.043-0.003,0.064-0.008c0.137-0.036,0.22-0.176,0.184-0.313l-0.768-2.966
			c-0.035-0.138-0.174-0.22-0.313-0.185c-0.138,0.036-0.22,0.176-0.185,0.313l0.769,2.966C5.118,24.847,5.222,24.923,5.337,24.923z"
			/>
		<path style="fill:#010002;" d="M3.257,26.056c0.05,0.048,0.114,0.071,0.178,0.071c0.068,0,0.135-0.026,0.186-0.078
			c0.098-0.103,0.095-0.265-0.007-0.364l-1.895-1.818c-0.103-0.099-0.265-0.095-0.363,0.007c-0.099,0.103-0.096,0.265,0.007,0.364
			L3.257,26.056z"/>
		<path style="fill:#010002;" d="M2.027,27.892c0.101,0,0.197-0.06,0.237-0.16c0.054-0.131-0.009-0.281-0.141-0.334l-1.77-0.721
			c-0.13-0.053-0.281,0.009-0.334,0.141c-0.054,0.131,0.01,0.281,0.141,0.335l1.77,0.721C1.961,27.886,1.993,27.892,2.027,27.892z"
			/>
		<path style="fill:#010002;" d="M50.206,39.745l-14.25,2.18c0.227-1.688,0.454-3.373,0.679-5.059
			c0.168-1.233-1.765-1.281-1.929-0.061c-0.242,1.808-0.486,3.615-0.731,5.422l-14.679,2.245c-0.681-1.755-1.364-3.51-2.046-5.262
			c-0.401-1.036-1.787-0.403-1.767,0.561c-0.078-0.059-0.157-0.11-0.251-0.16c-2.073-1.042-4.115-2.142-6.129-3.296
			c-0.274-1.462-1.766-2.597-3.222-2.605c-1.896-0.015-3.155,1.478-3.309,3.26c-0.24,2.802,0.046,5.597,0.627,8.34
			c0.136,0.646,0.412,1.135,0.763,1.508l-1.981,0.303c-1.092,0.167-1.842,1.188-1.675,2.279c0.151,0.989,1.003,1.697,1.975,1.697
			c0.101,0,0.202-0.008,0.305-0.023l10.843-1.658c0.437,1.254,0.826,2.526,1.196,3.806c0.622,2.149,3.976,1.234,3.352-0.922
			c-0.331-1.148-0.677-2.29-1.057-3.418l33.892-5.183c1.092-0.167,1.841-1.188,1.674-2.279C52.32,40.327,51.3,39.583,50.206,39.745z
			 M14.098,44.719c-1.481-0.175-2.977-0.303-4.473-0.39L9.093,40.3c1.446,0.799,2.907,1.571,4.384,2.314
			c1.195,0.601,2.297-0.231,2.569-1.214c0.437,1.124,0.873,2.247,1.31,3.368l-2.305,0.353C14.8,44.914,14.484,44.766,14.098,44.719z
			"/>
	</g>
</g>
<g>
</g>
<g>
</g>
<g>
</g>
<g>
</g>
<g>
</g>
<g>
</g>
<g>
</g>
<g>
</g>
<g>
</g>
<g>
</g>
<g>
</g>
<g>
</g>
<g>
</g>
<g>
</g>
<g>
</g>
</svg>
